{
  "title": "Request Payload",
  "IsPayload": true,
  "name": "requestPayload",
  "x-refPayLoadVersion": "08d97ce8-798b-5896-40a2-5ea28cf8cc19",
  "x-refPayLoadVersionNumber": 1,
  "type": "object"
}