{
  "$schema": "http://json-schema.org/draft-04/schema#",
  "title": "Problem",
  "description": "<p>Problem JSON Definition</p>",
  "type": "object",
  "properties": {
    "type": {
      "title": "Problem Type",
      "type": "string"
    },
    "detail": {
      "title": "Problem Detail",
      "type": "string"
    },
    "instance": {
      "title": "Problem Instance",
      "type": "string"
    },
    "errors": {
      "title": "errors",
      "type": "array",
      "items": {
        "title": "Error",
        "description": "",
        "type": "object",
        "properties": {
          "field": {
            "title": "Error field",
            "type": "string"
          },
          "message": {
            "title": "Error message",
            "type": "string"
          },
          "code": {
            "title": "Error Code",
            "type": "string"
          }
        }
      }
    },
    "title": {
      "title": "Problem Title",
      "type": "string"
    },
    "status": {
      "title": "Problem HTTP Status",
      "description": "",
      "type": "number",
      "enum": [
        "400",
        "401",
        "403",
        "404",
        "405",
        "415"
      ]
    }
  }
}