{
  "title": "Response Payload",
  "type": "object",
  "properties": {
    "total": {
      "title": "Total",
      "type": "integer"
    },
    "items": {
      "title": "Items",
      "type": "array",
      "items": {
        "title": "Customer",
        "type": "object",
        "properties": {
          "customerId": {
            "title": "Customer Id",
            "type": "integer"
          },
          "customerName": {
            "title": "Customer name",
            "type": "string"
          }
        }
      }
    }
  }
}