{
  "boxNumber": "2",
  "barcode": "000003763855802",
  "customerBoxNumber": "2",
  "customerId": "X999",
  "divisionId": "",
  "departmentId": "",
  "majorDescription": "RMI TEST BOX",
  "minorDescription": "",
  "locationId": "SDFL02432003430403",
  "locationDescription": "SAN DIEGO, CA",
  "longDescription": "QWE QWE WERWE",
  "status": "DSO",
  "fromDate": "2011/01/31",
  "toDate": "2020/01/31",
  "createDate": "2011/05/17",
  "receiptDate": "2012/06/19",
  "alphaFrom": "",
  "alphaTo": "",
  "destructionDate": "2011/08/17",
  "transactionDateTime": "2014/01/22T01:24:33.000",
  "transactionUserId": "bob",
  "specialFileFormat": "FIL",
  "fileGroupId": "0",
  "openShelfEnabled": false,
  "referenceNumber1": "",
  "referenceNumber2": "",
  "recordCode": "",
  "destructionIndicator": "",
  "transmissionRecord": false,
  "reconciledEnabled": false,
  "eventDate": "2011/04/18",
  "orderNumber": 111222.0,
  "orderType": "2",
  "customerBarcode": "",
  "holdCode": "HLD",
  "boxType": {
    "type": "1.2",
    "description": "Standard 1.2 cubft box",
    "cubicFoot": 1.2
  },
  "boxEntryId": "tempInv123"
}