{
  "items": [
    {
      "boxNumber": "2",
      "barcode": "000003763855802",
      "orderNumber": 111222.0,
      "externalOrderNumber": 7777.0,
      "orderLineNumber": 0.0,
      "statusDescription": "Received at Iron Mountain",
      "historyDateTime": "2014/01/22 01:24:33.000",
      "requestedBy": "JDOE",
      "requestedFor": "JDOE",
      "orderContact": "JDOE",
      "requestingDepartment": "",
      "requestingDivision": "",
      "id": "123456789",
      "disposition": "",
      "historyStatus": "NEW",
      "transactionDateTime": "2014/01/22T01:24:33.000"
    }
  ],
  "offset": 0.0,
  "limit": 20.0,
  "total": 1000.0
}